H:\Programming\Java\schulung\src\main\java\tarent\challenge\schulung\SchulungApplication.java
H:\Programming\Java\schulung\src\main\java\tarent\challenge\schulung\dto\Schulung.java
H:\Programming\Java\schulung\src\main\java\tarent\challenge\schulung\controller\SchulungController.java
H:\Programming\Java\schulung\src\main\java\tarent\challenge\schulung\dto\Termin.java
H:\Programming\Java\schulung\src\main\java\tarent\challenge\schulung\dto\Buchung.java
